0.4868776044,0.4170073060,0.3758977768,0.3534962835,0.3442718610,0.3431218514,0.3435808776,0.3452180973,0.3476887415,0.3541405025,0.3615503235,0.3691991111,0.3767322609
0.4539760008,0.3974819584,0.3628905988,0.3425116600,0.3320458504,0.3294890133,0.3282494355,0.3280359594,0.3286064531,0.3313575252,0.3353904350,0.3400453399,0.3449439178
0.4110175023,0.3671137865,0.3383383319,0.3199176401,0.3090205765,0.3057064352,0.3035022285,0.3022050613,0.3016387697,0.3021258197,0.3040531866,0.3068231897,0.3100573459
0.3630794746,0.3304871753,0.3073736657,0.2914311515,0.2811245681,0.2776788688,0.2751713369,0.2734625227,0.2724241891,0.2719128267,0.2728863761,0.2748056862,0.2773026544
0.3304251775,0.3026288522,0.2817582675,0.2665020066,0.2559626471,0.2522089185,0.2493290459,0.2472190641,0.2457767005,0.2445116757,0.2448499416,0.2462590545,0.2483537510
0.2969228412,0.2733096733,0.2545090655,0.2398825425,0.2290237602,0.2248891967,0.2215447128,0.2189261397,0.2169629323,0.2147045879,0.2141850553,0.2148909218,0.2164188674
